tests/TestRTLSimulationTraceVCDWithAdder.vcd
$date Mon, 20 Oct 2014 16:38:18 (UTC/GMT) $end
$timescale 1ns $end
$scope module logic $end
$var wire 3 r r $end
$upscope $end
$enddefinitions $end
$dumpvars
b0 r
$end
#0
b0 r
#1
b1 r
#2
b10 r
#3
b11 r
#4
b100 r
#5
b101 r
#6
b110 r
#7
b111 r
#8
b0 r
#9
b1 r
#10
b10 r
#11
b11 r
#12
b100 r
#13
b101 r
#14
b110 r
